ASxxxx Assembler V02.00 + NoICE + SDCC mods  (Zilog Z80 / Hitachi HD64180), page 1.
Hexadecimal [16-Bits]



                              1 .include "../sprites/sprite.h.s"
                              1 ;;
                              2 ;; SPRITE DEFINITION
                              3 ;;
                              4 
                              5 
                              6 
                              7 
                              8 ;;-----------------------
                              9 ;;-- Define Entity
                             10 ;;-----------------------
                             11 
                             12 
                             13 ;; OFFS	LEN	 Definition
                             14 ;;  00	 1		Width. 		Number of bytes per scan line.
                             15 ;;	01	 1		Length.		Number of bytes that build the sprite up.
                             16 ;;	02	LEN 	Data.		Bytes of sprite.
                             17 
                     0000    18 __off = 0
                             19 
                             20 .macro DefOffset 	_size, _name
                             21 	_name = __off
                             22 	__off = __off + _size
                             23 .endm
                             24 
                             25 
                             26 
                             27 ;;-----------------------
                             28 ;;-- Sprite Offsets
                             29 ;;-----------------------
                             30 
   0000                      31 DefOffset	1, spr_l		;; Sprite length
                     0000     1 	spr_l = __off
                     0001     2 	__off = __off + 1
   0000                      32 DefOffset 	1, spr_w		;; Sprite width
                     0001     1 	spr_w = __off
                     0002     2 	__off = __off + 1
   0000                      33 DefOffset 	1, spr_h		;; Sprite height
                     0002     1 	spr_h = __off
                     0003     2 	__off = __off + 1
   0000                      34 DefOffset	1, spr_d		;; Sprite data
                     0003     1 	spr_d = __off
                     0004     2 	__off = __off + 1
                             35 
                             36 
                             37 
                             38 .macro SetLabel 	_name, _row
                             39 r'_row'_'_name::
                             40 .endm
                             41 
                             42 
                             43 ;;-----------------------
                             44 ;;-- Reserve room for
                             45 ;;	 shifted sprites
                             46 ;;-----------------------
ASxxxx Assembler V02.00 + NoICE + SDCC mods  (Zilog Z80 / Hitachi HD64180), page 2.
Hexadecimal [16-Bits]



                             47 
                             48 .macro DefArray		_name, _rows _len
                             49 	__row = 0
                             50 	.rept _rows
                             51 		SetLabel	_name,\__row
                             52 		.blkb		_len
                             53 		__row = __row + 1
                             54 	.endm
                             55 
                             56 .endm
                             57 
                             58 ;;-----------------------
                             59 ;;-- Define Sprite
                             60 ;;
                             61 ;;	 Defines 3 labels:
                             62 ;;		- Sprite beginning. 				XXXX::
                             63 ;;		- Sprite original data beginning.	XXXX_src_bmp_ptr::
                             64 ;;		- Shifted sprite array.				XXXX_array:
                             65 ;;
                             66 ;;	Define 1 constant:
                             67 ;;		- sizeof_XXXX.	Holds the length of sprite (data + header)
                             68 ;;-----------------------
                             69 .macro DefSprite 	_name, _width, _len
                             70 
                             71 __height = (_len / _width)
                             72 __new_len = __height * (_width + 1)			;; Leave one extra byte per row
                             73 
                             74 _name'_array::
                             75 	DefArray	_name, 8, __new_len 				;; Define a row per shifted sprite
                             76 
                             77 _name::
                             78 	.db		_len, _width, __height
                             79    
                             80 	esz_'_name = __new_len
                             81     sz_'_name = _len + spr_d
                             82 
                             83 _name'_src_bmp_ptr::
                             84 
                             85 .endm
                             86 
ASxxxx Assembler V02.00 + NoICE + SDCC mods  (Zilog Z80 / Hitachi HD64180), page 3.
Hexadecimal [16-Bits]



                              2 .include "./render_sprite_m2.h.s"
                              1 
                              2 .globl print_spr
ASxxxx Assembler V02.00 + NoICE + SDCC mods  (Zilog Z80 / Hitachi HD64180), page 4.
Hexadecimal [16-Bits]



                              3 
                     C000     4 VMEM=0xC000
                              5 
                              6 ;;;;;;;;;;;;;;;;;;;;;;;;;;;;;;;;;;;;;;;;;;;;;;;;;;;;;;;;;;;;;;;;;;;;;;;
                              7 ;; 	SPRITE DEFINITION
                              8 ;;
                              9 ;;	Offset	Meaning
                             10 ;;	00 			Data length
                             11 ;;	01			Byte Width 	(of line)
                             12 ;;	03			Byte Length	(of sprite)
                             13 ;;	04...		Data Definition
                             14 ;;
                             15 ;;	SPRITE EXAMPLE
                             16 ;;
                             17 ;;	The following definition:
                             18 ;;
                             19 ;;	__sprite_len = __spr1_end - __spr1_strt
                             20 ;;	DefSprite		spr1, 1, __sprite_len
                             21 ;;	__spr1_strt:
                             22 ;;		.db		0x18,0x3C,0x7E,0xDB,0xFF,0x5A,0x81,0x42
                             23 ;;	__spr1_end:
                             24 ;;
                             25 ;;
                             26 ;;	Generates:
                             27 ;;
                             28 ;;	DATA
                             29 ;;
                             30 ;;	spr1_array::
                             31 ;;	r0_spr1::		.db 	00,00,00,00, 00,00,00,00, 00,00,00,00, 00,00,00,00
                             32 ;;	r1_spr1::		.db 	00,00,00,00, 00,00,00,00, 00,00,00,00, 00,00,00,00
                             33 ;;	r2_spr1::		.db 	00,00,00,00, 00,00,00,00, 00,00,00,00, 00,00,00,00
                             34 ;;	r3_spr1::		.db 	00,00,00,00, 00,00,00,00, 00,00,00,00, 00,00,00,00
                             35 ;;	r4_spr1::		.db 	00,00,00,00, 00,00,00,00, 00,00,00,00, 00,00,00,00
                             36 ;;	r5_spr1::		.db 	00,00,00,00, 00,00,00,00, 00,00,00,00, 00,00,00,00
                             37 ;;	r6_spr1::		.db 	00,00,00,00, 00,00,00,00, 00,00,00,00, 00,00,00,00
                             38 ;;	r7_spr1::		.db 	00,00,00,00, 00,00,00,00, 00,00,00,00, 00,00,00,00
                             39 ;;
                             40 ;; 	spr1::			.db 	08,01,08
                             41 ;;  spr1_src_bmp_ptr::
                             42 ;; 				 	.db		0x18,0x3C,0x7E,0xDB,0xFF,0x5A,0x81,0x42
                             43 ;;
                             44 ;; USER SIMBOLS
                             45 ;;
                             46 ;;		esz_spr1 = 0x10		;; Extended sizeof spr1. Printable Data Length
                             47 ;;		sz_spr1  = 0x0B		;; Size of original data + header 
                             48 
                             49 
                             50 
                             51 ;;;;;;;;;;;;;;;;;;;;;;;;;;;;;;;;;;;;;;;;;;;;;;;;;;;;;;;;;;;;;;;;;;;;;;;
                             52 ;; Print whole sprite
                             53 ;;
                             54 ;; MODIFIES
                             55 ;;	A, B, DE, HL
                             56 ;;
                             57 ;; PARAMS
ASxxxx Assembler V02.00 + NoICE + SDCC mods  (Zilog Z80 / Hitachi HD64180), page 5.
Hexadecimal [16-Bits]



                             58 ;;	HL:	Video memory address
                             59 ;;	IX: Sprite Header
                             60 ;;	DE:	Sprite Definition
                             61 ;;
   0000                      62 print_spr:
                             63 
   0000 DD 46 02      [19]   64 	ld  	b, spr_h(ix)
                             65 	
   0003                      66 	_another_row:
   0003 C5            [11]   67 		push    bc
   0004 DD 46 01      [19]   68 		ld		b, spr_w(ix)			;; Original row width
   0007 04            [ 4]   69 		inc     b						;; Extended row width
                             70 
   0008 E5            [11]   71 		push  	hl
   0009                      72 		_print_columns:
   0009 1A            [ 7]   73 			ld		a,(de)				;; Fetch data from source
   000A 77            [ 7]   74 			ld 		(hl), a  			;; Print to screen
                             75 
   000B 23            [ 6]   76 			inc  	hl					;; Advance pointers
   000C 13            [ 6]   77 			inc 	de
                             78 
   000D 10 FA         [13]   79 			djnz	_print_columns
                             80 
   000F E1            [10]   81 		pop  	hl
                             82 
   0010 7C            [ 4]   83 		ld  	a, h 					;; Get next row video
   0011 C6 08         [ 7]   84 		add  	#0x08 					;; memory address
   0013 67            [ 4]   85 		ld  	h, a 					;; Store in H (and a)
                             86 
   0014 D6 C0         [ 7]   87 		sub  	#0xC0 					;; If not screen overflow
   0016 D2 1D 00      [10]   88 		jp  	nc, _still_same_char
                             89 
                             90 		;; We have screen overflow and we advance to next character (0x050)
                             91 		;; As we are overflown H is in the 00's, so we add C0 to come back to screen
                             92 		;; and then 0x50 to advance a character
   0019 01 50 C0      [10]   93 		ld  	bc,#0xC050
   001C 09            [11]   94 		add  	hl,bc
                             95 
                             96 
                             97 
   001D                      98 	    _still_same_char:
                             99 
   001D C1            [10]  100     pop  	bc
   001E 10 E3         [13]  101     djnz  	_another_row
                            102 
   0020 C9            [10]  103     ret
                            104 
                            105 
