ASxxxx Assembler V02.00 + NoICE + SDCC mods  (Zilog Z80 / Hitachi HD64180), page 1.
Hexadecimal [16-Bits]

Symbol Table

    .__.$$$.                                                    =  2710 GL
    .__.ABS.                                                    =  0000 G
    .__.CPU.                                                    =  0000 GL
    .__.H$L.                                                    =  0000 GL
    print_spr                                                      **** GX


ASxxxx Assembler V02.00 + NoICE + SDCC mods  (Zilog Z80 / Hitachi HD64180), page 2.
Hexadecimal [16-Bits]

Area Table

   0 _CODE                                      size    0   flags    0

